The simTool package: Facilitate simulations • simTool
…
presever_rownames <- function(mat) {
  rn <- rownames(mat)
  ret <- tibble::as_tibble(mat)
  ret$term <- rn
  ret
}

eval_tibbles(
  expand_tibble(fun = "regData", n = 5L, SD = 1:2),
  expand_tibble(proc = "lm", formula = c("y~x", "y~I(x^2)")),
  post_analyze = purrr::compose(presever_rownames, coef, summary, identity),
  replications = 3
)

# A tibble: 24 x 11
   fun        n    SD replications proc  formula  Estimate `Std. Error` `t value` `Pr(>|t|)` term   
   <chr>  <int> <int>        <int> <chr> <chr>       <dbl>        <dbl>     <dbl>      <dbl> <chr>  
 1 regDa…     5     1            1 lm    y~x          9.91        0.670    14.8     0.000671 (Inter…
 2 regDa…     5     1            1 lm    y~x          2.80        1.09      2.56    0.0831   x      
 3 regDa…     5     1            1 lm    y~I(x^2)    10.3         0.577    17.9     0.000381 (Inter…
 4 regDa…     5     1            1 lm    y~I(x^2)     2.63        1.10      2.40    0.0961   I(x^2) 
 5 regDa…     5     1            2 lm    y~x          9.32        0.537    17.3     0.000419 (Inter…
 6 regDa…     5     1            2 lm    y~x          2.11        0.878     2.40    0.0960   x      
 7 regDa…     5     1            2 lm    y~I(x^2)     9.78        0.590    16.6     0.000478 (Inter…
 8 regDa…     5     1            2 lm    y~I(x^2)     1.56        1.12      1.39    0.259    I(x^2) 
 9 regDa…     5     1            3 lm    y~x          9.64        1.16      8.28    0.00369  (Inter…
10 regDa…     5     1            3 lm    y~x          1.83        1.90      0.965   0.406    x      
# … with 14 more rows
…
