Workhorse for simulation studies — eval_tibbles • simTool
…
dg <- expand_tibble(fun = "rexp", rate = c(10, 100), n = c(50L, 100L))
pg <- expand_tibble(proc = c("t.test"), conf.level = c(0.8, 0.9, 0.95))
et <- eval_tibbles(dg, pg,
  ncpus = 1,
  replications = 10^1,
  post_analyze = function(ttest, .truth) {
    mu = 1 / .truth$rate
    ttest$conf.int[1] <= mu && mu <= ttest$conf.int[2]
  },
 summary_fun = list(mean = mean, sd = sd)
)
et
#> # A tibble: 24 x 8
#>    fun    rate     n replications summary_fun proc   conf.level value
#>    <chr> <dbl> <int>        <int> <chr>       <chr>       <dbl> <dbl>
#>  1 rexp     10    50            1 mean        t.test       0.8  1    
#>  2 rexp     10    50            1 mean        t.test       0.9  1    
#>  3 rexp     10    50            1 mean        t.test       0.95 1    
#>  4 rexp     10    50            1 sd          t.test       0.8  0    
#>  5 rexp     10    50            1 sd          t.test       0.9  0    
#>  6 rexp     10    50            1 sd          t.test       0.95 0    
#>  7 rexp    100    50            1 mean        t.test       0.8  0.7  
#>  8 rexp    100    50            1 mean        t.test       0.9  0.8  
#>  9 rexp    100    50            1 mean        t.test       0.95 0.8  
#> 10 rexp    100    50            1 sd          t.test       0.8  0.483
#> # … with 14 more rows
…
dg <- dplyr::bind_rows(
 expand_tibble(fun = "rexp", rate = 10, .truth = 1/10, n = c(50L, 100L)),
 expand_tibble(fun = "rnorm", .truth = 0, n = c(50L, 100L)))
pg <- expand_tibble(proc = c("t.test"), conf.level = c(0.8, 0.9, 0.95))
et <- eval_tibbles(dg, pg,
  ncpus = 1,
  replications = 10^1,
  post_analyze = function(ttest, .truth) {
    ttest$conf.int[1] <= .truth && .truth <= ttest$conf.int[2]
  },
  summary_fun = list(mean = mean, sd = sd)
)
et
#> # A tibble: 24 x 9
#>    fun    rate .truth     n replications summary_fun proc   conf.level value
#>    <chr> <dbl>  <dbl> <int>        <int> <chr>       <chr>       <dbl> <dbl>
#>  1 rexp     10    0.1    50            1 mean        t.test       0.8  0.7  
#>  2 rexp     10    0.1    50            1 mean        t.test       0.9  0.8  
#>  3 rexp     10    0.1    50            1 mean        t.test       0.95 0.9  
#>  4 rexp     10    0.1    50            1 sd          t.test       0.8  0.483
#>  5 rexp     10    0.1    50            1 sd          t.test       0.9  0.422
#>  6 rexp     10    0.1    50            1 sd          t.test       0.95 0.316
#>  7 rexp     10    0.1   100            1 mean        t.test       0.8  0.7  
#>  8 rexp     10    0.1   100            1 mean        t.test       0.9  0.8  
#>  9 rexp     10    0.1   100            1 mean        t.test       0.95 0.9  
#> 10 rexp     10    0.1   100            1 sd          t.test       0.8  0.483
#> # … with 14 more rows
…
