Conduct Simulation Studies with a Minimal Amount of Source Code — simTool-package • simTool
…
Date:2013-02-21

License:GPL-3

Package:

evalGrids is the workhorse. as.data.frame is function coercing the result object of evalGrids to
a data.frame. expandGrid is only a convenient function

    Examples

dg = expand_tibble(fun="rexp", n=c(10, 20), rate=1:2)
pg = expand_tibble(proc="summary")
eval_tibbles(dg, pg, replications=3)
#> # A tibble: 72 x 6
#>    fun       n  rate replications proc    results
#>    <chr> <dbl> <int>        <int> <chr>     <dbl>
#>  1 rexp     10     1            1 summary 0.0167 
#>  2 rexp     10     1            1 summary 0.133  
#>  3 rexp     10     1            1 summary 0.372  
#>  4 rexp     10     1            1 summary 0.523  
#>  5 rexp     10     1            1 summary 0.936  
#>  6 rexp     10     1            1 summary 1.29   
#>  7 rexp     10     1            2 summary 0.00217
#>  8 rexp     10     1            2 summary 0.240  
#>  9 rexp     10     1            2 summary 0.445  
#> 10 rexp     10     1            2 summary 0.763  
#> # ... with 62 more rows
…
