The simTool package: Facilitate simulations • simTool
…
presever_rownames <- function(mat) {
  rn <- rownames(mat)
  ret <- tibble::as_tibble(mat)
  ret$term <- rn
  ret
}

eval_tibbles(
  expand_tibble(fun = "regData", n = 5L, SD = 1:2),
  expand_tibble(proc = "lm", formula = c("y~x", "y~I(x^2)")),
  post_analyze = purrr::compose(presever_rownames, coef, summary),
  replications = 3
)

# A tibble: 24 × 11
   fun         n    SD replications proc  formula  Estimate `Std. Error` `t value` `Pr(>|t|)` term  
   <chr>   <int> <int>        <int> <chr> <chr>       <dbl>        <dbl>     <dbl>      <dbl> <chr> 
 1 regData     5     1            1 lm    y~x          9.91        0.670    14.8     0.000671 (Inte…
 2 regData     5     1            1 lm    y~x          2.80        1.09      2.56    0.0831   x     
 3 regData     5     1            1 lm    y~I(x^2)    10.3         0.577    17.9     0.000381 (Inte…
 4 regData     5     1            1 lm    y~I(x^2)     2.63        1.10      2.40    0.0961   I(x^2)
 5 regData     5     1            2 lm    y~x          9.32        0.537    17.3     0.000419 (Inte…
 6 regData     5     1            2 lm    y~x          2.11        0.878     2.40    0.0960   x     
 7 regData     5     1            2 lm    y~I(x^2)     9.78        0.590    16.6     0.000478 (Inte…
 8 regData     5     1            2 lm    y~I(x^2)     1.56        1.12      1.39    0.259    I(x^2)
 9 regData     5     1            3 lm    y~x          9.64        1.16      8.28    0.00369  (Inte…
10 regData     5     1            3 lm    y~x          1.83        1.90      0.965   0.406    x     
# … with 14 more rows
…
Note, that the structure of the objects returned are quite different which addressed by our function post_analyze. The variables type and aspect that are created by post_analyze are to distinguish the different confidence intervals. Since these variables are part of the result objects, eval_tibbles assumes that these variables are results. In order to summarize the results (calculating the mean) over all replications correctly we need to tell eval_tibbles that additional group variables are type and aspect:

et <- eval_tibbles(dg, pg,
  replications = 10^3, ncpus = 2,
  cluster_global_objects = "post_analyze",
  post_analyze = post_analyze,
  summary_fun = list(mean = mean),
  group_for_summary = c("aspect", "type")
)
et

# A tibble: 72 × 14
   fun       n  mean    sd .truth   max  rate replications summary_fun proc  conf.level aspect type 
   <chr> <int> <dbl> <dbl>  <dbl> <dbl> <dbl>        <int> <chr>       <chr>      <dbl> <chr>  <chr>
 1 rnorm    10     0  1.73      0    NA    NA            1 mean        t.te…        0.9 ci_le… t.te…
 2 rnorm    10     0  1.73      0    NA    NA            1 mean        t.te…        0.9 cover… t.te…
 3 rnorm    10     0  1.73      0    NA    NA            1 mean        boot…        0.9 ci_le… boot…
 4 rnorm    10     0  1.73      0    NA    NA            1 mean        boot…        0.9 ci_le… boot…
 5 rnorm    10     0  1.73      0    NA    NA            1 mean        boot…        0.9 ci_le… boot…
 6 rnorm    10     0  1.73      0    NA    NA            1 mean        boot…        0.9 ci_le… boot…
 7 rnorm    10     0  1.73      0    NA    NA            1 mean        boot…        0.9 ci_le… boot…
 8 rnorm    10     0  1.73      0    NA    NA            1 mean        boot…        0.9 cover… boot…
 9 rnorm    10     0  1.73      0    NA    NA            1 mean        boot…        0.9 cover… boot…
10 rnorm    10     0  1.73      0    NA    NA            1 mean        boot…        0.9 cover… boot…
# … with 62 more rows, and 1 more variable: value <dbl>
…
pg <- simTool::expand_tibble(
  proc = c("t_test","bootstrap_ci"),
  conf.level = c(0.9, 0.95)
) %>% 
  mutate(R = ifelse(proc == "bootstrap_ci", 100, NA))

et <- eval_tibbles(dg, pg,
  replications = 10^2, ncpus = 2
)
et

# A tibble: 3,600 × 14
   fun       n  mean    sd .truth   max  rate replications proc  conf.level     R type  lower  upper
   <chr> <int> <dbl> <dbl>  <dbl> <dbl> <dbl>        <int> <chr>      <dbl> <dbl> <chr> <dbl>  <dbl>
 1 rnorm    10     0  1.73      0    NA    NA            1 t_te…       0.9     NA t.te… -1.56 0.235 
 2 rnorm    10     0  1.73      0    NA    NA            1 boot…       0.9    100 boot… -1.54 0.200 
 3 rnorm    10     0  1.73      0    NA    NA            1 boot…       0.9    100 boot… -1.64 0.177 
 4 rnorm    10     0  1.73      0    NA    NA            1 boot…       0.9    100 boot… -1.64 0.500 
 5 rnorm    10     0  1.73      0    NA    NA            1 boot…       0.9    100 boot… -1.51 0.312 
 6 rnorm    10     0  1.73      0    NA    NA            1 boot…       0.9    100 boot… -1.54 0.0987
 7 rnorm    10     0  1.73      0    NA    NA            1 t_te…       0.95    NA t.te… -1.77 0.446 
 8 rnorm    10     0  1.73      0    NA    NA            1 boot…       0.95   100 boot… -1.57 0.123 
 9 rnorm    10     0  1.73      0    NA    NA            1 boot…       0.95   100 boot… -1.73 0.257 
10 rnorm    10     0  1.73      0    NA    NA            1 boot…       0.95   100 boot… -1.83 0.716 
# … with 3,590 more rows
…
grps <- et$simulation %>% 
  select(-replications) %>% 
  select(fun:type) %>% 
  names

et$simulation %>% 
  mutate(covered = lower <= .truth & .truth <= upper,
         ci_length = upper - lower) %>% 
  group_by(.dots = grps) %>% 
  summarise(coverage = mean(covered),
            ci_length = mean(ci_length))

`summarise()` has grouped output by 'fun', 'n', 'mean', 'sd', '.truth', 'max', 'rate', 'proc', 'conf.level', 'R'. You can override using the `.groups` argument.

# A tibble: 36 × 13
# Groups:   fun, n, mean, sd, .truth, max, rate, proc, conf.level, R [12]
   fun       n  mean    sd .truth   max  rate proc         conf.level     R type  coverage ci_length
   <chr> <int> <dbl> <dbl>  <dbl> <dbl> <dbl> <chr>             <dbl> <dbl> <chr>    <dbl>     <dbl>
 1 rexp     10    NA    NA   1.73    NA 0.577 bootstrap_ci       0.9    100 boot…     0.8       1.61
 2 rexp     10    NA    NA   1.73    NA 0.577 bootstrap_ci       0.9    100 boot…     0.8       1.76
 3 rexp     10    NA    NA   1.73    NA 0.577 bootstrap_ci       0.9    100 boot…     0.8       1.60
 4 rexp     10    NA    NA   1.73    NA 0.577 bootstrap_ci       0.9    100 boot…     0.81      1.61
 5 rexp     10    NA    NA   1.73    NA 0.577 bootstrap_ci       0.9    100 boot…     0.88      2.42
 6 rexp     10    NA    NA   1.73    NA 0.577 bootstrap_ci       0.95   100 boot…     0.82      1.93
 7 rexp     10    NA    NA   1.73    NA 0.577 bootstrap_ci       0.95   100 boot…     0.85      2.03
 8 rexp     10    NA    NA   1.73    NA 0.577 bootstrap_ci       0.95   100 boot…     0.83      1.89
 9 rexp     10    NA    NA   1.73    NA 0.577 bootstrap_ci       0.95   100 boot…     0.85      1.93
10 rexp     10    NA    NA   1.73    NA 0.577 bootstrap_ci       0.95   100 boot…     0.93      3.26
# … with 26 more rows
…
